Getting more out of dplyr
…
---

## Select_all to modify all variable names with tolower()

Note that the observations itself are not modified.

```r
raw_surveydata_short %>% 
* select_all(tolower)
```

```
## # A tibble: 126 x 12
##    timestamp  `thinking about the~ `i've taken a set ~ `i've taken a set ~
##    <chr>      <chr>                <fct>               <fct>              
##  1 2018/08/1~ dplyr, readxl, json~ Never               Never              
##  2 2018/08/1~ tidyverse, broom, l~ Never               Never              
##  3 2018/08/1~ Tidyverse, recipes,~ Usually             About half the time
##  4 2018/08/1~ <NA>                 Seldom              About half the time
##  5 2018/08/1~ Ggplot2, reshape2, ~ Never               Seldom             
##  6 2018/08/1~ Tidyverse, here, pl~ Seldom              Never              
##  7 2018/08/1~ Tidyverse, odbc, db~ Usually             Usually            
##  8 2018/08/1~ dplyr, scales, ggre~ Never               Never              
##  9 2018/08/1~ dplyr, ggplot2, kni~ Seldom              Seldom             
## 10 2018/08/1~ Dplyr, purrr, furrr~ Seldom              Seldom             
## # ... with 116 more rows, and 8 more variables: `specifically about dplyr:
## #   can you list below all dplyr functions you can spontaneously think of
## #   right now? separate using commmas. if you don't use dplyr, leave this
## #   question blank. and to everyone else, no peeking to documentation or
## #   scripts please ;)` <chr>, `below are some quotes taken from
## #   brainyquote.com or from my private collection. can you indicate how
## #   much you agree or disagree with each quote? ["do or not do. there is
## #   no try." (yoda)]` <fct>, `below are some quotes taken from
## #   brainyquote.com or from my private collection. can you indicate how
…
---

# Extra data wrangling:

```r
surveydata3_cleanvartypes <- surveydata2_cleanvarnames %>% 
  separate(packages_last_month, into = paste0("package_mentioned_", 1:12), sep = ",") %>% 
  separate(dplyr_functions_mentioned, into = paste0("dplyr_function_mentioned_", 1:28), sep = ",")
surveydata3_cleanvartypes_s <- select(surveydata3_cleanvartypes, 1:2, 13, 14, 28:30, 56, 57, 63:66)

surveydata3_cleanvartypes
```

```
## # A tibble: 126 x 66
##    package_mentione~ package_mentione~ package_mentione~ package_mentione~
##    <chr>             <chr>             <chr>             <chr>            
##  1 dplyr             " readxl"         " jsonlite"       " tidyr"         
##  2 tidyverse         " broom"          " lubridate"      " tidytext"      
##  3 Tidyverse         " recipes"        " plotly"         " h2o"           
##  4 <NA>              <NA>              <NA>              <NA>             
##  5 Ggplot2           " reshape2"       " blogdown"       " googlesheets"  
##  6 Tidyverse         " here"           " plotly"         " knitr"         
##  7 Tidyverse         " odbc"           " dbplyr"         " ggmap"         
##  8 dplyr             " scales"         " ggrepel"        " tidyr"         
##  9 dplyr             " ggplot2"        " knitr"          " sf"            
## 10 Dplyr             " purrr"          " furrr"          " ggplot2"       
## # ... with 116 more rows, and 62 more variables:
## #   package_mentioned_5 <chr>, package_mentioned_6 <chr>,
## #   package_mentioned_7 <chr>, package_mentioned_8 <chr>,
## #   package_mentioned_9 <chr>, package_mentioned_10 <chr>,
## #   package_mentioned_11 <chr>, package_mentioned_12 <chr>,
## #   freq_load_package_Rcpp <fct>, freq_load_package_stringi <fct>,
## #   freq_load_package_ggplot2 <fct>, freq_load_package_glue <fct>,
## #   freq_load_package_rlang <fct>, freq_load_package_stringr <fct>,
## #   freq_load_package_dplyr <fct>, freq_load_package_pillar <fct>,
…
transform observations of multiple/all variables using function_y

---

## Scoped mutate functions

```r
surveydata3_cleanvartypes_s %>% 
  mutate_all(str_trim) %>% 
  mutate_all(tolower)
```

```
## # A tibble: 126 x 13
##    package_mentione~ package_mentione~ freq_load_packag~ freq_load_packag~
##    <chr>             <chr>             <chr>             <chr>            
##  1 dplyr             readxl            never             never            
##  2 tidyverse         broom             never             never            
##  3 tidyverse         recipes           usually           about half the t~
##  4 <NA>              <NA>              seldom            about half the t~
##  5 ggplot2           reshape2          never             seldom           
##  6 tidyverse         here              seldom            never            
##  7 tidyverse         odbc              usually           usually          
##  8 dplyr             scales            never             never            
##  9 dplyr             ggplot2           seldom            seldom           
## 10 dplyr             purrr             seldom            seldom           
## # ... with 116 more rows, and 9 more variables:
## #   dplyr_function_mentioned_1 <chr>, dplyr_function_mentioned_2 <chr>,
## #   dplyr_function_mentioned_3 <chr>, quote_Yoda <chr>,
## #   quote_EvelynWaugh <chr>, years_R_experience <chr>, continent <chr>,
## #   generation <chr>, month_born <chr>
```

---

## Scoped mutate functions

```r
agree_answers <- c("Strongly agree", "Slightly agree")
surveydata3_cleanvartypes %>% 
  select(starts_with("quote")) %>% #you don't need this, it's to fit on screen
* mutate_at(vars(starts_with("quote")), ~if_else(. %in% agree_answers, 1, 0))
```

```
## # A tibble: 126 x 7
##    quote_Yoda quote_EvelynWaugh quote_MarkTwain quote_JoeAbercrombie
##         <dbl>             <dbl>           <dbl>                <dbl>
##  1          0                 1               0                    1
##  2          1                 0               0                    1
##  3          1                 0               1                    1
##  4          0                 0               1                    1
##  5          0                 0               1                    1
##  6          1                 1               0                    1
##  7          1                 1               0                    1
##  8          0                 1               1                    1
##  9          1                 0               0                    1
## 10          0                 0               1                    0
## # ... with 116 more rows, and 3 more variables: quote_DouglasAdams <dbl>,
## #   quote_JimCarrey <dbl>, quote_GeorgeRRMartin <dbl>
```
…
